// Jest Snapshot v1, https://goo.gl/fbAQLP

exports[`(Page) Home renders correctly 1`] = `
<div>
  <div
    className="ui borderless inverted top fixed menu"
  >
    <div
      className="ui text container"
    >
      <div
        className="item"
        onClick={[Function]}
      >
        <a
          href="/"
          onClick={[Function]}
        >
          Medical Devices SPA
        </a>
      </div>
    </div>
  </div>
  <div
    className="ui text container"
    style={
      Object {
        "marginBottom": "40px",
        "marginTop": "80px",
      }
    }
  >
    <div
      className="ui dividing header"
    >
      Medical devices
    </div>
    <table
      className="ui table"
    >
      <thead
        className=""
      >
        <tr
          className=""
        >
          <th
            className=""
          >
            Name
          </th>
        </tr>
      </thead>
      <tbody
        className=""
      >
        <tr
          className=""
        >
          <td
            className=""
          >
            <a
              href="/device?id=1"
              onClick={[Function]}
            >
              Covidien Force Triad
            </a>
          </td>
        </tr>
      </tbody>
    </table>
  </div>
</div>
`;
